{
  "project_info": {
    "project_number": "1088978431002",
    "firebase_url": "https://addqr-97efe-default-rtdb.firebaseio.com",
    "project_id": "addqr-97efe",
    "storage_bucket": "addqr-97efe.appspot.com"
  },
  "client": [
    {
      "client_info": {
        "mobilesdk_app_id": "1:1088978431002:android:e609f3079b01de4968f5a3",
        "android_client_info": {
          "package_name": "com.example.qrread"
        }
      },
      "oauth_client": [
        {
          "client_id": "1088978431002-tu3m6173va6eip8m0jtsag60phjtveof.apps.googleusercontent.com",
          "client_type": 3
        }
      ],
      "api_key": [
        {
          "current_key": "AIzaSyAJelg4sgak-jcT9Y0FKrp95kFlY1WGHuU"
        }
      ],
      "services": {
        "appinvite_service": {
          "other_platform_oauth_client": [
            {
              "client_id": "1088978431002-tu3m6173va6eip8m0jtsag60phjtveof.apps.googleusercontent.com",
              "client_type": 3
            }
          ]
        }
      }
    }
  ],
  "configuration_version": "1"
}